<?xml version="1.0" encoding="utf-8"?>
<!-- Generator: Adobe Illustrator 21.0.0, SVG Export Plug-In . SVG Version: 6.00 Build 0)  -->
<svg version="1.1" id="Слой_2" xmlns="http://www.w3.org/2000/svg" xmlns:xlink="http://www.w3.org/1999/xlink" x="0px" y="0px"
	 width="172.9px" height="443px" viewBox="0 0 172.9 443" style="enable-background:new 0 0 172.9 443;" xml:space="preserve">
<style type="text/css">
	.st0{fill:#8DC63F;}
	.st1{fill:#FFFFFF;}
</style>
<g>
	<path class="st0" d="M72,141c10-3.8,18.4-13.4,23.8-27.1c8.8-22.4,7.6-49.9-3.2-71.8c-4.1-8.3-9.4-15.6-15.9-21.9
		C66,9.8,55.4,4.6,45.1,4.6c-16.5,0-30.8,14.2-37.3,37.1c-8.6,30.2-1.4,72.8,34.5,94.9c7.7,4.7,15.2,6.8,22.3,6.1
		c0.2,0,0.4-0.1,0.6-0.1c0.4,0,0.9-0.1,1.3-0.1l2.2-0.4l0.2,0.9c0.4,0.1,0.9,0.3,1.3,0.4l-1-1.4L72,141z M27.9,40
		c-2.5,3.7-2.6,13.3-3.5,18.5c-0.6,3.3-0.4,8.1-0.6,12c-0.4,6.5,2.2,12,2.7,18.3c0.1,1.3-0.6,2.1-1.5,1.6
		c-5.1-2.9-7.5-12.9-9.6-19.4c-1.9-5.9-3-12.2-2.4-18.1c0.9-8.8,3.6-21.2,10.5-22.6C26.8,29.5,30.1,36.8,27.9,40z"/>
	<path class="st0" d="M69.7,147.4l-0.1,0.4c-0.5,2.8-0.9,5.1-0.7,7.8c0,0.4,0.4,0.9,0.6,1c0.9,0.2,2,0.5,3.2,0.8
		c1.3,0.4,2.6,0.7,3.8,1l0.4,0.1c0.8,0.2,1.9,0.4,2.8,0.4c1,0,1.1-0.3,1.2-0.4c0.8-2.1-0.1-4.3-3-7.1c-0.6-0.6-1.3-1.2-1.9-1.8
		c-1.3-1.2-2.7-2.4-4-4c-1-0.5-1.9-0.9-2.8-1.1c0.1,0.8,0.3,1.6,0.4,2.4L69.7,147.4z"/>
	<path d="M66.5,142.5c-0.4,0.1-0.9,0.1-1.3,0.1c1.2-0.1,2.5,0,3.7,0.4l-0.2-0.9L66.5,142.5z"/>
	<path d="M77.9,150.6c-2.1-2.3-4.1-3.9-5.9-4.9c1.3,1.5,2.7,2.8,4,4c0.7,0.6,1.3,1.2,1.9,1.8c2.9,2.8,3.8,5,3,7.1
		c-0.1,0.1-0.2,0.4-1.2,0.4c-0.9,0-1.9-0.2-2.8-0.4l-0.4-0.1c-1.3-0.3-2.6-0.6-3.8-1c-1.1-0.3-2.2-0.6-3.2-0.8
		c-0.2-0.1-0.6-0.7-0.6-1c-0.2-2.7,0.2-4.9,0.7-7.8l0.1-0.4l-0.1-0.4c-0.2-0.8-0.3-1.6-0.4-2.4c-4-1.1-7.6,0.3-11.8,2
		c-0.1,0-0.2-0.2-0.1-0.3c2.4-2.2,4.9-3.4,7.4-3.7c-7.1,0.7-14.7-1.4-22.3-6.1C6.4,114.5-0.7,71.9,7.8,41.7
		C14.3,18.8,28.6,4.6,45.1,4.6c10.2,0,20.9,5.3,31.7,15.7c6.5,6.2,11.8,13.6,15.9,21.9c10.7,21.9,11.9,49.4,3.2,71.8
		C90.4,127.6,82,137.2,72,141l-2.8,1.1l1,1.4c5.8,2.3,11,9,14.6,17.4c0.1-0.2,0.2-0.4,0.3-0.6c2.3-5.8-2.5-10.5-4.1-12.1
		c-0.7-0.6-1.4-1.3-2.1-1.9c-0.8-0.7-1.7-1.5-2.5-2.3c9.9-4.9,18.2-14.9,23.5-28.4c9.3-23.5,8-52.4-3.3-75.5
		c-4.3-8.8-9.9-16.5-16.8-23.2C68.3,5.7,56.6,0,45.1,0C26.5,0,10.5,15.5,3.4,40.5c-9,31.8-1.4,76.7,36.5,100
		c8.5,5.2,17,7.5,25.1,6.8c0,0.1,0,0.1,0,0.2c-0.5,2.9-0.9,5.4-0.7,8.5c0.2,2.3,1.9,4.6,3.9,5.1c1.1,0.2,2.1,0.6,3.2,0.9
		c1.4,0.4,2.8,0.8,4.1,1.1l0.4,0.1c1,0.2,2.4,0.5,3.8,0.5c2.2,0,3.6-0.8,4.4-1.7C82.7,157.6,80.7,153.6,77.9,150.6z"/>
	<path class="st1" d="M23.5,30.2c-7,1.5-9.7,13.8-10.5,22.6c-0.6,6,0.5,12.2,2.4,18.2c2.1,6.5,4.5,16.5,9.6,19.4
		c0.9,0.5,1.7-0.2,1.5-1.6C26,82.5,23.4,77,23.7,70.5c0.2-3.9,0-8.8,0.6-12c0.9-5.2,1-14.8,3.5-18.5C30.1,36.8,26.8,29.5,23.5,30.2z
		"/>
	<path d="M117.3,328.9c4.9,5,10.1,9.3,15.1,14.2c6.2,6.3,11.4,15.1,15.7,23.4c4.3,8.4,6.5,16.5,7.9,24.6c1.1,6.5,1.7,12.9,2.3,19.6
		c0.1,1.3,0.3,2.7,0.4,4c0.3,2.8,0.9,5.5,1.6,8.1c0.5,1.6,1,3.2,1.7,4.8c2.4,5.8,5.9,11.1,10.5,15.3c0.3,0.3,0.6-0.2,0.3-0.6
		c-4.4-5.3-7.2-10.5-9-15.6c-0.7-1.9-1.2-3.8-1.6-5.7c-0.7-3.2-1.2-6.4-1.6-9.7c-0.7-6.6-1.1-13.4-2.5-20.9c0-0.1,0-0.1,0-0.2
		c-1.6-8.5-4.8-17.4-8.9-25.6c-2.2-4.3-4.6-8.3-7.1-12c-1.5-2.1-3-4.1-4.6-6c-8.3-9.8-17.6-16.9-25.9-27.1
		c-4.3-5.3-7.6-11-10.4-17.1c-0.4-0.8-0.7-1.6-1-2.4c-5.4-13-7.9-27.2-9.5-40.4c-1.9-15.6-2.2-30.2-1.2-44.8
		c0.9-12.6,1.8-25-0.2-38.7c-0.8-5.3-2.3-10.6-4.3-15.3c-3.6-8.4-8.9-15.1-14.6-17.4c-0.4-0.2-0.9-0.3-1.3-0.4
		c-1.2-0.3-2.4-0.5-3.7-0.4c-0.2,0-0.4,0-0.6,0.1c-2.4,0.3-4.9,1.5-7.4,3.7c-0.1,0.1,0,0.3,0.1,0.3c4.2-1.7,7.8-3.1,11.8-2
		c0.9,0.2,1.8,0.6,2.8,1.1c1.8,1,3.8,2.6,5.9,4.9c2.8,3,4.8,7,6.3,11.2c1.7,4.8,2.7,9.8,3.5,14.1c2.6,14.3,0.8,27.9-0.2,40.9
		c-1.9,24.5,0.1,53.8,9.5,80.1c0.4,1.1,0.9,2.2,1.3,3.4c0.3,0.8,0.7,1.6,1.1,2.5C103.8,312.8,110.2,321.7,117.3,328.9z"/>
</g>
</svg>
