<?xml version="1.0" encoding="UTF-8"?>
<svg width="24px" height="39px" viewBox="0 0 24 39" version="1.1" xmlns="http://www.w3.org/2000/svg" xmlns:xlink="http://www.w3.org/1999/xlink">
    <!-- Generator: Sketch 47.1 (45422) - http://www.bohemiancoding.com/sketch -->
    <title>metka</title>
    <desc>Created with Sketch.</desc>
    <defs></defs>
    <g id="Page-1" stroke="none" stroke-width="1" fill="none" fill-rule="evenodd">
        <g id="main_spa_new-hover" transform="translate(-1176.000000, -36.000000)" fill-rule="nonzero" fill="#DE000C">
            <path d="M1177.64254,53.6426679 C1176.59938,51.8953254 1176,49.852393 1176,47.6694684 C1176,41.2245987 1181.2246,36 1187.66947,36 C1194.11434,36 1199.33894,41.2245987 1199.33894,47.6694684 C1199.33894,49.1538641 1199.06178,50.5735277 1198.55639,51.8795308 L1198.57441,51.8795308 L1198.47591,52.0818445 C1198.28437,52.5504572 1198.06324,53.0038328 1197.81484,53.4396477 L1187.67927,74.2574609 L1177.64254,53.6426679 Z M1187.83515,51.6910288 C1189.9647,51.6910288 1191.69103,49.9646956 1191.69103,47.8351549 C1191.69103,45.7056153 1189.9647,43.9792821 1187.83515,43.9792821 C1185.70561,43.9792821 1183.97928,45.7056153 1183.97928,47.8351549 C1183.97928,49.9646956 1185.70561,51.6910288 1187.83515,51.6910288 Z" id="metka"></path>
        </g>
    </g>
</svg>