<?xml version="1.0" encoding="utf-8"?>
<!-- Generator: Adobe Illustrator 21.0.0, SVG Export Plug-In . SVG Version: 6.00 Build 0)  -->
<svg version="1.1" id="Слой_1" xmlns="http://www.w3.org/2000/svg" xmlns:xlink="http://www.w3.org/1999/xlink" x="0px" y="0px"
	 width="62.1px" height="89.4px" viewBox="0 0 62.1 89.4" style="enable-background:new 0 0 62.1 89.4;" xml:space="preserve">
<g>
	<path d="M54.7,31.4c-1.2,0-2.5,0.2-3.5,0.7c-1-3-3.7-5-6.9-5.2c-1.5-0.2-2.9,0.2-4.2,1c-1.3-2.2-3.5-3.7-6.2-3.9c-1,0-2,0.2-3,0.5
		V17c0-4.2-3.2-7.7-7.2-8.1c-2.2-0.2-4.2,0.7-5.7,2c-1.5,1.5-2.4,3.5-2.4,5.5V45l-2.2-2c-3.5-3-6.9-3.5-9.7-1.8
		c-1.8,1-3,2.7-3.5,4.9s0,4.4,1.2,6.2l18.1,27.4v7.2c0,1.3,1.2,2.5,2.5,2.5h31.1c1.3,0,2.5-1.2,2.5-2.5v-9.6l5.2-9.6
		c0.8-1.7,1.3-3.4,1.3-5.2v-23C62.1,35.1,58.9,31.8,54.7,31.4z M57.1,62.5L57.1,62.5c0,1-0.3,2-0.7,2.9l-5.7,10.1
		c-0.2,0.3-0.3,0.8-0.3,1.2v7.7H24.5V79c0-0.5-0.2-1-0.3-1.3l-18.9-28c-0.5-0.7-0.7-1.5-0.5-2.4C5,47,5.1,46.1,6,45.6
		c0.3-0.2,1.3-0.8,4,1.3l4.2,3.7c0.8,0.7,1.2,1.7,1.2,2.5V55c0,1.3,1.2,2.5,2.5,2.5s2.5-1.2,2.5-2.5v-4.4v-3V16.5
		c0-0.7,0.3-1.3,0.8-1.8s1.2-0.8,2-0.7c1.3,0,2.5,1.3,2.5,3v9v5.7v11.8c0,1.3,1.2,2.5,2.5,2.5s2.5-1.2,2.5-2.5V31.8
		c0-0.7,0.3-1.3,0.8-1.8s1.2-0.8,2-0.7c1.3,0,2.5,1.3,2.5,3V33v2v8.9c0,1.3,1.2,2.5,2.5,2.5s2.5-1.2,2.5-2.5V35c0-0.7,0.3-1.5,0.8-2
		s1.2-0.8,2-0.7c1.3,0,2.5,1.3,2.5,3v1.2v3.2v7.6c0,1.3,1.2,2.5,2.5,2.5s2.5-1.2,2.5-2.5v-7.6c0-0.7,0.3-1.3,0.8-1.8s1.2-0.8,2-0.7
		c1.3,0,2.5,1.3,2.5,3L57.1,62.5L57.1,62.5z"/>
	<path d="M36.7,22c1.3,0.3,2.7-0.7,3-2c0.2-1.2,0.3-2.2,0.3-3.4C40.1,7.4,32.7,0,23.4,0S6.8,7.4,6.8,16.6c0,2.9,0.8,5.7,2.2,8.2
		c0.5,0.8,1.3,1.3,2.2,1.3c0.5,0,0.8-0.2,1.2-0.3c1.2-0.7,1.7-2.2,1-3.4c-1-1.7-1.5-3.7-1.5-5.7c0-6.4,5.2-11.6,11.6-11.6
		s11.6,5.2,11.6,11.6c0,0.8,0,1.5-0.2,2.4C34.4,20.5,35.2,21.8,36.7,22z"/>
</g>
</svg>
