<?xml version="1.0" encoding="UTF-8"?>
<svg width="30px" height="30px" viewBox="0 0 30 30" version="1.1" xmlns="http://www.w3.org/2000/svg" xmlns:xlink="http://www.w3.org/1999/xlink">
    <!-- Generator: Sketch 47.1 (45422) - http://www.bohemiancoding.com/sketch -->
    <title>vk</title>
    <desc>Created with Sketch.</desc>
    <defs></defs>
    <g id="Page-1" stroke="none" stroke-width="1" fill="none" fill-rule="evenodd">
        <g id="main_spa_new-hover" transform="translate(-807.000000, -122.000000)" fill-rule="nonzero">
            <g id="vk" transform="translate(807.875692, 122.716605)">
                <circle id="Oval-Copy-8" fill="#49861B" cx="14.5215292" cy="14.5215292" r="14.5215292"></circle>
                <g transform="translate(6.878619, 9.935783)" id="Shape" fill="#FFFFFF">
                    <path d="M15.5860806,8.095146 C15.5671071,8.05425561 15.5494193,8.02033746 15.5329889,7.99316297 C15.2611295,7.50353606 14.7416135,6.90255367 13.9747552,6.19004435 L13.9585533,6.17372822 L13.9504382,6.16572732 L13.9422372,6.15752639 L13.9340077,6.15752639 C13.5859682,5.82574593 13.3655719,5.60266351 13.2732756,5.48845056 C13.1043994,5.27088305 13.0665664,5.05065809 13.1588627,4.82751852 C13.2240701,4.65892798 13.4690121,4.30288764 13.8931173,3.7589117 C14.1161998,3.47062189 14.2928769,3.23956713 14.4233489,3.06549026 C15.3643412,1.81449135 15.7723017,1.01508646 15.6471446,0.6669613 L15.5985392,0.585609222 C15.5658783,0.536632243 15.481583,0.491827166 15.3457677,0.450965393 C15.2096379,0.410189343 15.0356469,0.403445721 14.8234799,0.43062023 L12.4739565,0.446850641 C12.4358951,0.433363398 12.381546,0.434620683 12.310738,0.450965393 C12.2400158,0.467310101 12.2046403,0.475511032 12.2046403,0.475511032 L12.1637499,0.495941918 L12.1312891,0.520487557 C12.104086,0.536717968 12.0741683,0.56526406 12.0415075,0.606068684 C12.0090181,0.646730435 11.9818435,0.694450129 11.9601268,0.748827723 C11.7043264,1.40693087 11.4134934,2.01880022 11.087085,2.58440717 C10.8858336,2.92167396 10.7010127,3.21396423 10.5322221,3.46144942 C10.3636602,3.70884889 10.2222441,3.89112669 10.1081169,4.00796849 C9.99381827,4.12492461 9.8906637,4.21862094 9.79802472,4.2894004 C9.70552845,4.36020842 9.63492053,4.3901261 9.58602924,4.37918199 C9.53702371,4.3682379 9.49087554,4.35737952 9.44718487,4.34652115 C9.37109057,4.29754417 9.30988364,4.23093662 9.26373553,4.14664136 C9.21738742,4.06234609 9.18618392,3.95624835 9.16986774,3.82843386 C9.15363735,3.70053365 9.14403624,3.5905212 9.14129309,3.498025 C9.13874993,3.4056431 9.13992151,3.27497114 9.1454364,3.10638061 C9.15109419,2.93770435 9.15363735,2.82357713 9.15363735,2.76374178 C9.15363735,2.55703264 9.15766636,2.33269293 9.16575301,2.0906655 C9.17398254,1.84863807 9.18064042,1.65687348 9.1862125,1.51560033 C9.191756,1.37418431 9.19432766,1.22456735 9.19432766,1.06683519 C9.19432766,0.909103025 9.18472663,0.785403293 9.16575301,0.69562169 C9.14700806,0.605954385 9.11823332,0.51891595 9.08031475,0.434534959 C9.04216757,0.350239691 8.98633266,0.285032301 8.91306725,0.238741341 C8.83965894,0.192507531 8.74839141,0.155817658 8.63977909,0.128557426 C8.35148931,0.0633214617 7.98439054,0.0280317482 7.53831147,0.0225454122 C6.52673965,0.0116870388 5.87675171,0.0770087269 5.58849047,0.218424753 C5.47427753,0.278174382 5.37092296,0.359812205 5.27851248,0.463081051 C5.1805871,0.582780331 5.16692841,0.648102019 5.23762214,0.658846094 C5.56400198,0.707737349 5.79505674,0.824693461 5.93104357,1.00960013 L5.98004912,1.10758266 C6.01816774,1.17827639 6.0562292,1.30343343 6.09431922,1.48288234 C6.13235211,1.66233124 6.15689775,1.86083945 6.16769897,2.07829267 C6.1948449,2.47539482 6.1948449,2.81531905 6.16769897,3.09809396 C6.14046731,3.38098316 6.11475011,3.60120812 6.09020448,3.75894028 C6.06565883,3.91667244 6.02896896,4.04448692 5.98004912,4.14235516 C5.93104357,4.24025197 5.89843988,4.30008732 5.88209517,4.32180406 C5.86577903,4.34352081 5.85217749,4.35720807 5.84137628,4.36258012 C5.77068255,4.3896689 5.69715993,4.40347046 5.6210656,4.40347046 C5.54485695,4.40347046 5.45244648,4.36535186 5.34369129,4.28917179 C5.23496469,4.21299173 5.12212333,4.1083513 5.00516723,3.97507906 C4.88821111,3.84177824 4.75631045,3.65549998 4.60940808,3.41621572 C4.46262003,3.17693146 4.31031705,2.89412798 4.15258489,2.56780529 L4.02208438,2.3311499 C3.94050371,2.17890407 3.8290625,1.9572218 3.68764648,1.66630313 C3.54614474,1.37527015 3.42107341,1.09375253 3.31234681,0.821807417 C3.26888474,0.707594475 3.20359163,0.620641764 3.11658176,0.560806412 L3.07574857,0.536260773 C3.04860263,0.514544026 3.00502627,0.49148427 2.94524807,0.466910056 C2.88538413,0.442364417 2.82291991,0.424762423 2.75759822,0.413932624 L0.522230611,0.430163035 C0.293804724,0.430163035 0.138815732,0.481911757 0.0572064831,0.585266327 L0.0245456389,0.634157582 C0.00822950405,0.66138924 0,0.704879882 0,0.764743809 C0,0.824579163 0.0163161348,0.898016056 0.048976979,0.984968768 C0.375299674,1.75191283 0.730168462,2.49156807 1.11358334,3.20404882 C1.49699823,3.91652957 1.83017884,4.49045175 2.11292516,4.92530102 C2.39572865,5.36046463 2.68398989,5.77116832 2.97770888,6.15721207 C3.27142788,6.54339869 3.46584992,6.79088387 3.56097498,6.89961049 C3.65621435,7.00853712 3.73102282,7.08997491 3.78540042,7.14435251 L3.98939496,7.34011755 C4.11992405,7.47067518 4.31160291,7.62703578 4.56451728,7.80919929 C4.81748881,7.99147709 5.09754912,8.17092597 5.40484109,8.34783177 C5.71219021,8.52445179 6.06974501,8.66858242 6.47770554,8.78005219 C6.8856089,8.89163626 7.28262532,8.93641271 7.66881197,8.91481031 L8.60703252,8.91481031 C8.79731126,8.89837984 8.94147049,8.83854448 9.03945302,8.73527565 L9.07191381,8.69438533 C9.09374488,8.66192447 9.11417571,8.61149022 9.13303503,8.54362534 C9.15212287,8.47564623 9.16160968,8.40075205 9.16160968,8.31928563 C9.1560376,8.08545919 9.17383965,7.87472102 9.21452997,7.68709973 C9.2551917,7.49953563 9.30153981,7.35811959 9.35337431,7.26288022 C9.40518013,7.16772658 9.46364394,7.08743177 9.52870841,7.02233868 C9.59391577,6.95710272 9.6403782,6.91758394 9.66763846,6.90398241 C9.69472726,6.89029515 9.71635829,6.88100837 9.73267446,6.87543631 C9.86320343,6.83194567 10.0168209,6.87406473 10.1937552,7.00199352 C10.3705467,7.129808 10.5363655,7.28762588 10.6914688,7.47518999 C10.8464863,7.66292559 11.032736,7.87354946 11.2502464,8.1073759 C11.4678996,8.34128819 11.6582068,8.51516497 11.8213111,8.62954938 L11.9844153,8.7274462 C12.0933419,8.79276786 12.2347579,8.85260321 12.4088348,8.90698085 C12.5825973,8.96132983 12.7348432,8.97493137 12.8655724,8.94775688 L14.954009,8.9151818 C15.1605753,8.9151818 15.3213078,8.88097787 15.4353207,8.81311306 C15.5495622,8.74513396 15.617427,8.6702397 15.6393152,8.58877336 C15.6611463,8.50722123 15.6623178,8.41469649 15.6434585,8.31125617 C15.6241135,8.20807306 15.6050542,8.13592203 15.5860806,8.095146 Z"></path>
                </g>
            </g>
        </g>
    </g>
</svg>